test/wave.vcd
$date
	Wed Nov 01 23:59:18 2023
$end
$version
	Icarus Verilog
$end
$timescale
	1s
$end
$scope module SystolicArray_tb $end
$var reg 1 ! clk $end
$var reg 1 " rst_n $end
$scope module u_dut $end
$var wire 1 ! clk $end
$var wire 1 " rst_n $end
$scope begin genblk1[0] $end
$var parameter 2 # v $end
$scope begin genblk1[0] $end
$var parameter 2 $ h $end
$scope module u_MAC $end
$var wire 1 ! clk $end
$var wire 1 " rst_n $end
$var real 1 % a $end
$var real 1 & b $end
$var real 1 ' out $end
$upscope $end
$upscope $end
$scope begin genblk1[1] $end
$var parameter 2 ( h $end
$scope module u_MAC $end
$var wire 1 ! clk $end
$var wire 1 " rst_n $end
$var real 1 ) a $end
$var real 1 * b $end
$var real 1 + out $end
$upscope $end
$upscope $end
$scope begin genblk1[2] $end
$var parameter 3 , h $end
$scope module u_MAC $end
$var wire 1 ! clk $end
$var wire 1 " rst_n $end
$var real 1 - a $end
$var real 1 . b $end
$var real 1 / out $end
$upscope $end
$upscope $end
$scope begin genblk1[3] $end
$var parameter 3 0 h $end
$scope module u_MAC $end
$var wire 1 ! clk $end
$var wire 1 " rst_n $end
$var real 1 1 a $end
$var real 1 2 b $end
$var real 1 3 out $end
$upscope $end
$upscope $end
$scope begin genblk1[4] $end
$var parameter 4 4 h $end
$scope module u_MAC $end
$var wire 1 ! clk $end
$var wire 1 " rst_n $end
$var real 1 5 a $end
$var real 1 6 b $end
$var real 1 7 out $end
$upscope $end
$upscope $end
$scope begin genblk1[5] $end
$var parameter 4 8 h $end
$scope module u_MAC $end
$var wire 1 ! clk $end
$var wire 1 " rst_n $end
$var real 1 9 a $end
$var real 1 : b $end
$var real 1 ; out $end
$upscope $end
$upscope $end
$upscope $end
$scope begin genblk1[1] $end
$var parameter 2 < v $end
$scope begin genblk1[0] $end
$var parameter 2 = h $end
$scope module u_MAC $end
$var wire 1 ! clk $end
$var wire 1 " rst_n $end
$var real 1 > a $end
$var real 1 ? b $end
$var real 1 @ out $end
$upscope $end
$upscope $end
$scope begin genblk1[1] $end
$var parameter 2 A h $end
$scope module u_MAC $end
$var wire 1 ! clk $end
$var wire 1 " rst_n $end
$var real 1 B a $end
$var real 1 C b $end
$var real 1 D out $end
$upscope $end
$upscope $end
$scope begin genblk1[2] $end
$var parameter 3 E h $end
$scope module u_MAC $end
$var wire 1 ! clk $end
$var wire 1 " rst_n $end
$var real 1 F a $end
$var real 1 G b $end
$var real 1 H out $end
$upscope $end
$upscope $end
$scope begin genblk1[3] $end
$var parameter 3 I h $end
$scope module u_MAC $end
$var wire 1 ! clk $end
$var wire 1 " rst_n $end
$var real 1 J a $end
$var real 1 K b $end
$var real 1 L out $end
$upscope $end
$upscope $end
$scope begin genblk1[4] $end
$var parameter 4 M h $end
$scope module u_MAC $end
$var wire 1 ! clk $end
$var wire 1 " rst_n $end
$var real 1 N a $end
$var real 1 O b $end
$var real 1 P out $end
$upscope $end
$upscope $end
$scope begin genblk1[5] $end
$var parameter 4 Q h $end
$scope module u_MAC $end
$var wire 1 ! clk $end
$var wire 1 " rst_n $end
$var real 1 R a $end
$var real 1 S b $end
$var real 1 T out $end
$upscope $end
$upscope $end
$upscope $end
$scope begin genblk1[2] $end
$var parameter 3 U v $end
$scope begin genblk1[0] $end
$var parameter 2 V h $end
$scope module u_MAC $end
$var wire 1 ! clk $end
$var wire 1 " rst_n $end
$var real 1 W a $end
$var real 1 X b $end
$var real 1 Y out $end
$upscope $end
$upscope $end
$scope begin genblk1[1] $end
$var parameter 2 Z h $end
$scope module u_MAC $end
$var wire 1 ! clk $end
$var wire 1 " rst_n $end
$var real 1 [ a $end
$var real 1 \ b $end
$var real 1 ] out $end
$upscope $end
$upscope $end
$scope begin genblk1[2] $end
$var parameter 3 ^ h $end
$scope module u_MAC $end
$var wire 1 ! clk $end
$var wire 1 " rst_n $end
$var real 1 _ a $end
$var real 1 ` b $end
$var real 1 a out $end
$upscope $end
$upscope $end
$scope begin genblk1[3] $end
$var parameter 3 b h $end
$scope module u_MAC $end
$var wire 1 ! clk $end
$var wire 1 " rst_n $end
$var real 1 c a $end
$var real 1 d b $end
$var real 1 e out $end
$upscope $end
$upscope $end
$scope begin genblk1[4] $end
$var parameter 4 f h $end
$scope module u_MAC $end
$var wire 1 ! clk $end
$var wire 1 " rst_n $end
$var real 1 g a $end
$var real 1 h b $end
$var real 1 i out $end
$upscope $end
$upscope $end
$scope begin genblk1[5] $end
$var parameter 4 j h $end
$scope module u_MAC $end
$var wire 1 ! clk $end
$var wire 1 " rst_n $end
$var real 1 k a $end
$var real 1 l b $end
$var real 1 m out $end
$upscope $end
$upscope $end
$upscope $end
$scope begin genblk1[3] $end
$var parameter 3 n v $end
$scope begin genblk1[0] $end
$var parameter 2 o h $end
$scope module u_MAC $end
$var wire 1 ! clk $end
$var wire 1 " rst_n $end
$var real 1 p a $end
$var real 1 q b $end
$var real 1 r out $end
$upscope $end
$upscope $end
$scope begin genblk1[1] $end
$var parameter 2 s h $end
$scope module u_MAC $end
$var wire 1 ! clk $end
$var wire 1 " rst_n $end
$var real 1 t a $end
$var real 1 u b $end
$var real 1 v out $end
$upscope $end
$upscope $end
$scope begin genblk1[2] $end
$var parameter 3 w h $end
$scope module u_MAC $end
$var wire 1 ! clk $end
$var wire 1 " rst_n $end
$var real 1 x a $end
$var real 1 y b $end
$var real 1 z out $end
$upscope $end
$upscope $end
$scope begin genblk1[3] $end
$var parameter 3 { h $end
$scope module u_MAC $end
$var wire 1 ! clk $end
$var wire 1 " rst_n $end
$var real 1 | a $end
$var real 1 } b $end
$var real 1 ~ out $end
$upscope $end
$upscope $end
$scope begin genblk1[4] $end
$var parameter 4 !" h $end
$scope module u_MAC $end
$var wire 1 ! clk $end
$var wire 1 " rst_n $end
$var real 1 "" a $end
$var real 1 #" b $end
$var real 1 $" out $end
$upscope $end
$upscope $end
$scope begin genblk1[5] $end
$var parameter 4 %" h $end
$scope module u_MAC $end
$var wire 1 ! clk $end
$var wire 1 " rst_n $end
$var real 1 &" a $end
$var real 1 '" b $end
$var real 1 (" out $end
$upscope $end
$upscope $end
$upscope $end
$scope begin genblk1[4] $end
$var parameter 4 )" v $end
$scope begin genblk1[0] $end
$var parameter 2 *" h $end
$scope module u_MAC $end
$var wire 1 ! clk $end
$var wire 1 " rst_n $end
$var real 1 +" a $end
$var real 1 ," b $end
$var real 1 -" out $end
$upscope $end
$upscope $end
$scope begin genblk1[1] $end
$var parameter 2 ." h $end
$scope module u_MAC $end
$var wire 1 ! clk $end
$var wire 1 " rst_n $end
$var real 1 /" a $end
$var real 1 0" b $end
$var real 1 1" out $end
$upscope $end
$upscope $end
$scope begin genblk1[2] $end
$var parameter 3 2" h $end
$scope module u_MAC $end
$var wire 1 ! clk $end
$var wire 1 " rst_n $end
$var real 1 3" a $end
$var real 1 4" b $end
$var real 1 5" out $end
$upscope $end
$upscope $end
$scope begin genblk1[3] $end
$var parameter 3 6" h $end
$scope module u_MAC $end
$var wire 1 ! clk $end
$var wire 1 " rst_n $end
$var real 1 7" a $end
$var real 1 8" b $end
$var real 1 9" out $end
$upscope $end
$upscope $end
$scope begin genblk1[4] $end
$var parameter 4 :" h $end
$scope module u_MAC $end
$var wire 1 ! clk $end
$var wire 1 " rst_n $end
$var real 1 ;" a $end
$var real 1 <" b $end
$var real 1 =" out $end
$upscope $end
$upscope $end
$scope begin genblk1[5] $end
$var parameter 4 >" h $end
$scope module u_MAC $end
$var wire 1 ! clk $end
$var wire 1 " rst_n $end
$var real 1 ?" a $end
$var real 1 @" b $end
$var real 1 A" out $end
$upscope $end
$upscope $end
$upscope $end
$scope begin genblk1[5] $end
$var parameter 4 B" v $end
$scope begin genblk1[0] $end
$var parameter 2 C" h $end
$scope module u_MAC $end
$var wire 1 ! clk $end
$var wire 1 " rst_n $end
$var real 1 D" a $end
$var real 1 E" b $end
$var real 1 F" out $end
$upscope $end
$upscope $end
$scope begin genblk1[1] $end
$var parameter 2 G" h $end
$scope module u_MAC $end
$var wire 1 ! clk $end
$var wire 1 " rst_n $end
$var real 1 H" a $end
$var real 1 I" b $end
$var real 1 J" out $end
$upscope $end
$upscope $end
$scope begin genblk1[2] $end
$var parameter 3 K" h $end
$scope module u_MAC $end
$var wire 1 ! clk $end
$var wire 1 " rst_n $end
$var real 1 L" a $end
$var real 1 M" b $end
$var real 1 N" out $end
$upscope $end
$upscope $end
$scope begin genblk1[3] $end
$var parameter 3 O" h $end
$scope module u_MAC $end
$var wire 1 ! clk $end
$var wire 1 " rst_n $end
$var real 1 P" a $end
$var real 1 Q" b $end
$var real 1 R" out $end
$upscope $end
$upscope $end
$scope begin genblk1[4] $end
$var parameter 4 S" h $end
$scope module u_MAC $end
$var wire 1 ! clk $end
$var wire 1 " rst_n $end
$var real 1 T" a $end
$var real 1 U" b $end
$var real 1 V" out $end
$upscope $end
$upscope $end
$scope begin genblk1[5] $end
$var parameter 4 W" h $end
$scope module u_MAC $end
$var wire 1 ! clk $end
$var wire 1 " rst_n $end
$var real 1 X" a $end
$var real 1 Y" b $end
$var real 1 Z" out $end
$upscope $end
$upscope $end
$upscope $end
$scope begin $ivl_for_loop0 $end
$var integer 32 [" i [31:0] $end
$scope begin $ivl_for_loop1 $end
$var integer 32 \" step [31:0] $end
$upscope $end
$upscope $end
$scope begin $ivl_for_loop2 $end
$var integer 32 ]" i [31:0] $end
$scope begin $ivl_for_loop3 $end
$var integer 32 ^" step [31:0] $end
$upscope $end
$upscope $end
$upscope $end
$scope begin $ivl_for_loop4 $end
$var integer 32 _" i [31:0] $end
$upscope $end
$scope begin $ivl_for_loop5 $end
$var integer 32 `" i [31:0] $end
$upscope $end
$scope begin $ivl_for_loop6 $end
$var integer 32 a" i [31:0] $end
$scope begin $ivl_for_loop7 $end
$var integer 32 b" j [31:0] $end
$upscope $end
$upscope $end
$upscope $end
$enddefinitions $end
$comment Show the parameter values. $end
$dumpall
b101 W"
b100 S"
b11 O"
b10 K"
b1 G"
b0 C"
b101 B"
b101 >"
b100 :"
b11 6"
b10 2"
b1 ."
b0 *"
b100 )"
b101 %"
b100 !"
b11 {
b10 w
b1 s
b0 o
b11 n
b101 j
b100 f
b11 b
b10 ^
b1 Z
b0 V
b10 U
b101 Q
b100 M
b11 I
b10 E
b1 A
b0 =
b1 <
b101 8
b100 4
b11 0
b10 ,
b1 (
b0 $
b0 #
$end
#0
$dumpvars
b0 b"
b0 a"
b110 `"
b110 _"
b0 ^"
b0 ]"
b0 \"
b0 ["
r0 Z"
r0 Y"
r0 X"
r0 V"
r0 U"
r0 T"
r0 R"
r0 Q"
r0 P"
r0 N"
r0 M"
r0 L"
r0 J"
r0 I"
r0 H"
r0 F"
r0 E"
r0 D"
r0 A"
r0 @"
r0 ?"
r0 ="
r0 <"
r0 ;"
r0 9"
r0 8"
r0 7"
r0 5"
r0 4"
r0 3"
r0 1"
r0 0"
r0 /"
r0 -"
r0 ,"
r0 +"
r0 ("
r0 '"
r0 &"
r0 $"
r0 #"
r0 ""
r0 ~
r0 }
r0 |
r0 z
r0 y
r0 x
r0 v
r0 u
r0 t
r0 r
r0 q
r0 p
r0 m
r0 l
r0 k
r0 i
r0 h
r0 g
r0 e
r0 d
r0 c
r0 a
r0 `
r0 _
r0 ]
r0 \
r0 [
r0 Y
r0 X
r0 W
r0 T
r0 S
r0 R
r0 P
r0 O
r0 N
r0 L
r0 K
r0 J
r0 H
r0 G
r0 F
r0 D
r0 C
r0 B
r0 @
r0 ?
r0 >
r0 ;
r0 :
r0 9
r0 7
r0 6
r0 5
r0 3
r0 2
r0 1
r0 /
r0 .
r0 -
r0 +
r0 *
r0 )
r0 '
r0 &
r0 %
1"
0!
$end
#5
r0 Y"
r0 X"
r0 U"
r0 ?"
r0 Q"
r0 &"
r0 M"
r0 k
r0 I"
r0 R
r3 E"
r5 9
r0 @"
r0 T"
r0 <"
r0 ;"
r0 8"
r0 ""
r0 4"
r0 g
r0 0"
r0 N
r3 ,"
r5 5
r0 '"
r0 P"
r0 #"
r0 7"
r0 }
r0 |
r0 y
r0 c
r0 u
r0 J
r3 q
r5 1
r0 l
r0 L"
r0 h
r0 3"
r0 d
r0 x
r0 `
r0 _
r0 \
r0 F
r3 X
r5 -
r0 S
r0 H"
r0 O
r0 /"
r0 K
r0 t
r0 G
r0 [
r0 C
r0 B
r3 ?
r5 )
r0 :
r0 D"
r0 6
r0 +"
r0 2
r0 p
r0 .
r0 W
r0 *
r0 >
r3 &
r5 %
b110 ]"
b110 ^"
b110 a"
b110 b"
1!
#10
b110 b"
b110 a"
0!
#15
r0 Y"
r0 X"
r0 U"
r0 ?"
r0 Q"
r0 &"
r0 M"
r0 k
r3 I"
r5 R
r3 E"
r5 9
r0 @"
r0 T"
r0 <"
r0 ;"
r0 8"
r0 ""
r0 4"
r0 g
r3 0"
r5 N
r3 ,"
r5 5
r0 '"
r0 P"
r0 #"
r0 7"
r0 }
r0 |
r0 y
r0 c
r3 u
r5 J
r3 q
r5 1
r0 l
r0 L"
r0 h
r0 3"
r0 d
r0 x
r0 `
r0 _
r3 \
r5 F
r3 X
r5 -
r0 S
r0 H"
r0 O
r0 /"
r0 K
r0 t
r0 G
r0 [
r3 C
r5 B
r3 ?
r5 )
r0 :
r0 D"
r0 6
r0 +"
r0 2
r0 p
r0 .
r0 W
r3 *
r5 >
r3 &
r5 %
r15 '
b110 ^"
b110 ]"
b110 b"
b110 a"
1!
#20
r0 Y"
r0 X"
r0 U"
r0 T"
r0 Q"
r0 P"
r0 M"
r0 L"
r0 I"
r0 H"
r0 E"
r0 D"
r0 @"
r0 ?"
r0 <"
r0 ;"
r0 8"
r0 7"
r0 4"
r0 3"
r0 0"
r0 /"
r0 ,"
r0 +"
r0 '"
r0 &"
r0 #"
r0 ""
r0 }
r0 |
r0 y
r0 x
r0 u
r0 t
r0 q
r0 p
r0 l
r0 k
r0 h
r0 g
r0 d
r0 c
r0 `
r0 _
r0 \
r0 [
r0 X
r0 W
r0 S
r0 R
r0 O
r0 N
r0 K
r0 J
r0 G
r0 F
r0 C
r0 B
r0 ?
r0 >
r0 :
r0 9
r0 6
r0 5
r0 2
r0 1
r0 .
r0 -
r0 *
r0 )
r0 &
r0 %
r0 '
b110 ["
b110 \"
b110 b"
b110 a"
0!
0"
#25
r0 Y"
r0 X"
r0 U"
r0 T"
r0 Q"
r0 P"
r0 M"
r0 L"
r0 I"
r0 H"
r0 E"
r0 D"
r0 @"
r0 ?"
r0 <"
r0 ;"
r0 8"
r0 7"
r0 4"
r0 3"
r0 0"
r0 /"
r0 ,"
r0 +"
r0 '"
r0 &"
r0 #"
r0 ""
r0 }
r0 |
r0 y
r0 x
r0 u
r0 t
r0 q
r0 p
r0 l
r0 k
r0 h
r0 g
r0 d
r0 c
r0 `
r0 _
r0 \
r0 [
r0 X
r0 W
r0 S
r0 R
r0 O
r0 N
r0 K
r0 J
r0 G
r0 F
r0 C
r0 B
r0 ?
r0 >
r0 :
r0 9
r0 6
r0 5
r0 2
r0 1
r0 .
r0 -
r0 *
r0 )
r0 &
r0 %
b110 \"
b110 ["
b110 b"
b110 a"
1!
#30
b110 b"
b110 a"
0!
#35
r0 Y"
r0 X"
r0 U"
r0 T"
r0 Q"
r0 P"
r0 M"
r0 L"
r0 I"
r0 H"
r0 E"
r0 D"
r0 @"
r0 ?"
r0 <"
r0 ;"
r0 8"
r0 7"
r0 4"
r0 3"
r0 0"
r0 /"
r0 ,"
r0 +"
r0 '"
r0 &"
r0 #"
r0 ""
r0 }
r0 |
r0 y
r0 x
r0 u
r0 t
r0 q
r0 p
r0 l
r0 k
r0 h
r0 g
r0 d
r0 c
r0 `
r0 _
r0 \
r0 [
r0 X
r0 W
r0 S
r0 R
r0 O
r0 N
r0 K
r0 J
r0 G
r0 F
r0 C
r0 B
r0 ?
r0 >
r0 :
r0 9
r0 6
r0 5
r0 2
r0 1
r0 .
r0 -
r0 *
r0 )
r0 &
r0 %
b110 \"
b110 ["
b110 b"
b110 a"
1!
#40
b110 b"
b110 a"
0!
1"
#45
r0 Y"
r0 X"
r0 U"
r0 ?"
r0 Q"
r0 &"
r0 M"
r0 k
r0 I"
r0 R
r3 E"
r5 9
r0 @"
r0 T"
r0 <"
r0 ;"
r0 8"
r0 ""
r0 4"
r0 g
r0 0"
r0 N
r3 ,"
r5 5
r0 '"
r0 P"
r0 #"
r0 7"
r0 }
r0 |
r0 y
r0 c
r0 u
r0 J
r3 q
r5 1
r0 l
r0 L"
r0 h
r0 3"
r0 d
r0 x
r0 `
r0 _
r0 \
r0 F
r3 X
r5 -
r0 S
r0 H"
r0 O
r0 /"
r0 K
r0 t
r0 G
r0 [
r0 C
r0 B
r3 ?
r5 )
r0 :
r0 D"
r0 6
r0 +"
r0 2
r0 p
r0 .
r0 W
r0 *
r0 >
r3 &
r5 %
b110 ^"
b110 ]"
b110 b"
b110 a"
1!
#50
b110 b"
b110 a"
0!
#55
r0 Y"
r0 X"
r0 U"
r0 ?"
r0 Q"
r0 &"
r0 M"
r0 k
r3 I"
r5 R
r3 E"
r5 9
r0 @"
r0 T"
r0 <"
r0 ;"
r0 8"
r0 ""
r0 4"
r0 g
r3 0"
r5 N
r3 ,"
r5 5
r0 '"
r0 P"
r0 #"
r0 7"
r0 }
r0 |
r0 y
r0 c
r3 u
r5 J
r3 q
r5 1
r0 l
r0 L"
r0 h
r0 3"
r0 d
r0 x
r0 `
r0 _
r3 \
r5 F
r3 X
r5 -
r0 S
r0 H"
r0 O
r0 /"
r0 K
r0 t
r0 G
r0 [
r3 C
r5 B
r3 ?
r5 )
r0 :
r0 D"
r0 6
r0 +"
r0 2
r0 p
r0 .
r0 W
r3 *
r5 >
r3 &
r5 %
r15 '
b110 ^"
b110 ]"
b110 b"
b110 a"
1!
#60
b110 b"
b110 a"
0!
#65
r0 Y"
r0 X"
r0 U"
r0 ?"
r0 Q"
r0 &"
r3 M"
r5 k
r3 I"
r5 R
r3 E"
r5 9
r0 @"
r0 T"
r0 <"
r0 ;"
r0 8"
r0 ""
r3 4"
r5 g
r3 0"
r5 N
r3 ,"
r5 5
r0 '"
r0 P"
r0 #"
r0 7"
r0 }
r0 |
r3 y
r5 c
r3 u
r5 J
r3 q
r5 1
r0 l
r0 L"
r0 h
r0 3"
r0 d
r0 x
r3 `
r5 _
r3 \
r5 F
r3 X
r5 -
r0 S
r0 H"
r0 O
r0 /"
r0 K
r0 t
r3 G
r5 [
r3 C
r5 B
r3 ?
r5 )
r0 :
r0 D"
r0 6
r0 +"
r0 2
r0 p
r3 .
r5 W
r3 *
r5 >
r3 &
r5 %
r15 D
r15 @
r15 +
r30 '
b110 ^"
b110 ]"
b110 b"
b110 a"
1!
#70
b110 b"
b110 a"
0!
#75
r0 Y"
r0 X"
r0 U"
r0 ?"
r3 Q"
r5 &"
r3 M"
r5 k
r3 I"
r5 R
r3 E"
r5 9
r0 @"
r0 T"
r0 <"
r0 ;"
r3 8"
r5 ""
r3 4"
r5 g
r3 0"
r5 N
r3 ,"
r5 5
r0 '"
r0 P"
r0 #"
r0 7"
r3 }
r5 |
r3 y
r5 c
r3 u
r5 J
r3 q
r5 1
r0 l
r0 L"
r0 h
r0 3"
r3 d
r5 x
r3 `
r5 _
r3 \
r5 F
r3 X
r5 -
r0 S
r0 H"
r0 O
r0 /"
r3 K
r5 t
r3 G
r5 [
r3 C
r5 B
r3 ?
r5 )
r0 :
r0 D"
r0 6
r0 +"
r3 2
r5 p
r3 .
r5 W
r3 *
r5 >
r3 &
r5 %
r45 '
r30 +
r15 /
r30 @
r30 D
r15 H
r15 Y
r15 ]
r15 a
b110 ^"
b110 ]"
b110 b"
b110 a"
1!
#80
b110 b"
b110 a"
0!
#85
r0 Y"
r0 X"
r3 U"
r5 ?"
r3 Q"
r5 &"
r3 M"
r5 k
r3 I"
r5 R
r3 E"
r5 9
r0 @"
r0 T"
r3 <"
r5 ;"
r3 8"
r5 ""
r3 4"
r5 g
r3 0"
r5 N
r3 ,"
r5 5
r0 '"
r0 P"
r3 #"
r5 7"
r3 }
r5 |
r3 y
r5 c
r3 u
r5 J
r3 q
r5 1
r0 l
r0 L"
r3 h
r5 3"
r3 d
r5 x
r3 `
r5 _
r3 \
r5 F
r3 X
r5 -
r0 S
r0 H"
r3 O
r5 /"
r3 K
r5 t
r3 G
r5 [
r3 C
r5 B
r3 ?
r5 )
r0 :
r0 D"
r3 6
r5 +"
r3 2
r5 p
r3 .
r5 W
r3 *
r5 >
r3 &
r5 %
r15 ~
r15 z
r15 v
r15 r
r15 e
r30 a
r30 ]
r30 Y
r15 L
r30 H
r45 D
r45 @
r15 3
r30 /
r45 +
r60 '
b110 ^"
b110 ]"
b110 b"
b110 a"
1!
#90
b110 b"
b110 a"
0!
#95
r3 Y"
r5 X"
r3 U"
r5 ?"
r3 Q"
r5 &"
r3 M"
r5 k
r3 I"
r5 R
r3 E"
r5 9
r3 @"
r5 T"
r3 <"
r5 ;"
r3 8"
r5 ""
r3 4"
r5 g
r3 0"
r5 N
r3 ,"
r5 5
r3 '"
r5 P"
r3 #"
r5 7"
r3 }
r5 |
r3 y
r5 c
r3 u
r5 J
r3 q
r5 1
r3 l
r5 L"
r3 h
r5 3"
r3 d
r5 x
r3 `
r5 _
r3 \
r5 F
r3 X
r5 -
r3 S
r5 H"
r3 O
r5 /"
r3 K
r5 t
r3 G
r5 [
r3 C
r5 B
r3 ?
r5 )
r3 :
r5 D"
r3 6
r5 +"
r3 2
r5 p
r3 .
r5 W
r3 *
r5 >
r3 &
r5 %
r75 '
r60 +
r45 /
r30 3
r15 7
r60 @
r60 D
r45 H
r30 L
r15 P
r45 Y
r45 ]
r45 a
r30 e
r15 i
r30 r
r30 v
r30 z
r30 ~
r15 $"
r15 -"
r15 1"
r15 5"
r15 9"
r15 ="
b110 ^"
b110 ]"
b110 b"
b110 a"
1!
#100
b110 b"
b110 a"
0!
#105
r3 Y"
r5 X"
r3 U"
r5 ?"
r3 Q"
r5 &"
r3 M"
r5 k
r3 I"
r5 R
r3 E"
r5 9
r3 @"
r5 T"
r3 <"
r5 ;"
r3 8"
r5 ""
r3 4"
r5 g
r3 0"
r5 N
r3 ,"
r5 5
r3 '"
r5 P"
r3 #"
r5 7"
r3 }
r5 |
r3 y
r5 c
r3 u
r5 J
r3 q
r5 1
r3 l
r5 L"
r3 h
r5 3"
r3 d
r5 x
r3 `
r5 _
r3 \
r5 F
r3 X
r5 -
r3 S
r5 H"
r3 O
r5 /"
r3 K
r5 t
r3 G
r5 [
r3 C
r5 B
r3 ?
r5 )
r3 :
r5 D"
r3 6
r5 +"
r3 2
r5 p
r3 .
r5 W
r3 *
r5 >
r3 &
r5 %
r15 Z"
r15 V"
r15 R"
r15 N"
r15 J"
r15 F"
r15 A"
r30 ="
r30 9"
r30 5"
r30 1"
r30 -"
r15 ("
r30 $"
r45 ~
r45 z
r45 v
r45 r
r15 m
r30 i
r45 e
r60 a
r60 ]
r60 Y
r15 T
r30 P
r45 L
r60 H
r75 D
r75 @
r15 ;
r30 7
r45 3
r60 /
r75 +
r90 '
b110 ^"
b110 ]"
b110 b"
b110 a"
1!
#110
b110 b"
b110 a"
0!
#115
r3 Y"
r5 X"
r3 U"
r5 ?"
r3 Q"
r5 &"
r3 M"
r5 k
r3 I"
r5 R
r3 E"
r5 9
r3 @"
r5 T"
r3 <"
r5 ;"
r3 8"
r5 ""
r3 4"
r5 g
r3 0"
r5 N
r3 ,"
r5 5
r3 '"
r5 P"
r3 #"
r5 7"
r3 }
r5 |
r3 y
r5 c
r3 u
r5 J
r3 q
r5 1
r3 l
r5 L"
r3 h
r5 3"
r3 d
r5 x
r3 `
r5 _
r3 \
r5 F
r3 X
r5 -
r3 S
r5 H"
r3 O
r5 /"
r3 K
r5 t
r3 G
r5 [
r3 C
r5 B
r3 ?
r5 )
r3 :
r5 D"
r3 6
r5 +"
r3 2
r5 p
r3 .
r5 W
r3 *
r5 >
r3 &
r5 %
r105 '
r90 +
r75 /
r60 3
r45 7
r30 ;
r90 @
r90 D
r75 H
r60 L
r45 P
r30 T
r75 Y
r75 ]
r75 a
r60 e
r45 i
r30 m
r60 r
r60 v
r60 z
r60 ~
r45 $"
r30 ("
r45 -"
r45 1"
r45 5"
r45 9"
r45 ="
r30 A"
r30 F"
r30 J"
r30 N"
r30 R"
r30 V"
r30 Z"
b110 ^"
b110 ]"
b110 b"
b110 a"
1!
#120
b110 b"
b110 a"
0!
#125
r3 Y"
r5 X"
r3 U"
r5 ?"
r3 Q"
r5 &"
r3 M"
r5 k
r3 I"
r5 R
r3 E"
r5 9
r3 @"
r5 T"
r3 <"
r5 ;"
r3 8"
r5 ""
r3 4"
r5 g
r3 0"
r5 N
r3 ,"
r5 5
r3 '"
r5 P"
r3 #"
r5 7"
r3 }
r5 |
r3 y
r5 c
r3 u
r5 J
r3 q
r5 1
r3 l
r5 L"
r3 h
r5 3"
r3 d
r5 x
r3 `
r5 _
r3 \
r5 F
r3 X
r5 -
r3 S
r5 H"
r3 O
r5 /"
r3 K
r5 t
r3 G
r5 [
r3 C
r5 B
r3 ?
r5 )
r3 :
r5 D"
r3 6
r5 +"
r3 2
r5 p
r3 .
r5 W
r3 *
r5 >
r3 &
r5 %
r45 Z"
r45 V"
r45 R"
r45 N"
r45 J"
r45 F"
r45 A"
r60 ="
r60 9"
r60 5"
r60 1"
r60 -"
r45 ("
r60 $"
r75 ~
r75 z
r75 v
r75 r
r45 m
r60 i
r75 e
r90 a
r90 ]
r90 Y
r45 T
r60 P
r75 L
r90 H
r105 D
r105 @
r45 ;
r60 7
r75 3
r90 /
r105 +
r120 '
b110 ^"
b110 ]"
b110 b"
b110 a"
1!
#130
b110 b"
b110 a"
0!
#135
r3 Y"
r5 X"
r3 U"
r5 ?"
r3 Q"
r5 &"
r3 M"
r5 k
r3 I"
r5 R
r3 E"
r5 9
r3 @"
r5 T"
r3 <"
r5 ;"
r3 8"
r5 ""
r3 4"
r5 g
r3 0"
r5 N
r3 ,"
r5 5
r3 '"
r5 P"
r3 #"
r5 7"
r3 }
r5 |
r3 y
r5 c
r3 u
r5 J
r3 q
r5 1
r3 l
r5 L"
r3 h
r5 3"
r3 d
r5 x
r3 `
r5 _
r3 \
r5 F
r3 X
r5 -
r3 S
r5 H"
r3 O
r5 /"
r3 K
r5 t
r3 G
r5 [
r3 C
r5 B
r3 ?
r5 )
r3 :
r5 D"
r3 6
r5 +"
r3 2
r5 p
r3 .
r5 W
r3 *
r5 >
r3 &
r5 %
r135 '
r120 +
r105 /
r90 3
r75 7
r60 ;
r120 @
r120 D
r105 H
r90 L
r75 P
r60 T
r105 Y
r105 ]
r105 a
r90 e
r75 i
r60 m
r90 r
r90 v
r90 z
r90 ~
r75 $"
r60 ("
r75 -"
r75 1"
r75 5"
r75 9"
r75 ="
r60 A"
r60 F"
r60 J"
r60 N"
r60 R"
r60 V"
r60 Z"
b110 ^"
b110 ]"
b110 b"
b110 a"
1!
